PWD /home/maximilian/Documents/05-NextBigThink/CurriculaVitae
INPUT /home/maximilian/.local/texlive/2018/texmf.cnf
INPUT /home/maximilian/.local/texlive/2018/texmf-dist/web2c/texmf.cnf
INPUT /home/maximilian/.local/texlive/2018/texmf-var/web2c/xetex/xelatex.fmt
INPUT main.tex
OUTPUT build/main.log
INPUT tremonia-cv.cls
INPUT tremonia-cv.cls
INPUT /home/maximilian/.local/texlive/2018/texmf-dist/tex/latex/base/article.cls
INPUT /home/maximilian/.local/texlive/2018/texmf-dist/tex/latex/base/article.cls
INPUT /home/maximilian/.local/texlive/2018/texmf-dist/tex/latex/base/size10.clo
INPUT /home/maximilian/.local/texlive/2018/texmf-dist/tex/latex/base/size10.clo
INPUT /home/maximilian/.local/texlive/2018/texmf-dist/tex/latex/fancyhdr/fancyhdr.sty
INPUT /home/maximilian/.local/texlive/2018/texmf-dist/tex/latex/fancyhdr/fancyhdr.sty
INPUT /home/maximilian/.local/texlive/2018/texmf-dist/tex/latex/xcolor/xcolor.sty
INPUT /home/maximilian/.local/texlive/2018/texmf-dist/tex/latex/xcolor/xcolor.sty
INPUT /home/maximilian/.local/texlive/2018/texmf-dist/tex/latex/graphics-cfg/color.cfg
INPUT /home/maximilian/.local/texlive/2018/texmf-dist/tex/latex/graphics-cfg/color.cfg
INPUT /home/maximilian/.local/texlive/2018/texmf-dist/tex/latex/graphics-def/xetex.def
INPUT /home/maximilian/.local/texlive/2018/texmf-dist/tex/latex/graphics-def/xetex.def
INPUT /home/maximilian/.local/texlive/2018/texmf-dist/tex/latex/geometry/geometry.sty
INPUT /home/maximilian/.local/texlive/2018/texmf-dist/tex/latex/geometry/geometry.sty
INPUT /home/maximilian/.local/texlive/2018/texmf-dist/tex/latex/graphics/keyval.sty
INPUT /home/maximilian/.local/texlive/2018/texmf-dist/tex/latex/graphics/keyval.sty
INPUT /home/maximilian/.local/texlive/2018/texmf-dist/tex/generic/oberdiek/ifpdf.sty
INPUT /home/maximilian/.local/texlive/2018/texmf-dist/tex/generic/oberdiek/ifpdf.sty
INPUT /home/maximilian/.local/texlive/2018/texmf-dist/tex/generic/oberdiek/ifvtex.sty
INPUT /home/maximilian/.local/texlive/2018/texmf-dist/tex/generic/oberdiek/ifvtex.sty
INPUT /home/maximilian/.local/texlive/2018/texmf-dist/tex/generic/ifxetex/ifxetex.sty
INPUT /home/maximilian/.local/texlive/2018/texmf-dist/tex/generic/ifxetex/ifxetex.sty
INPUT /home/maximilian/.local/texlive/2018/texmf-dist/tex/latex/xifthen/xifthen.sty
INPUT /home/maximilian/.local/texlive/2018/texmf-dist/tex/latex/xifthen/xifthen.sty
INPUT /home/maximilian/.local/texlive/2018/texmf-dist/tex/latex/tools/calc.sty
INPUT /home/maximilian/.local/texlive/2018/texmf-dist/tex/latex/tools/calc.sty
INPUT /home/maximilian/.local/texlive/2018/texmf-dist/tex/latex/base/ifthen.sty
INPUT /home/maximilian/.local/texlive/2018/texmf-dist/tex/latex/base/ifthen.sty
INPUT /home/maximilian/.local/texlive/2018/texmf-dist/tex/latex/ifmtarg/ifmtarg.sty
INPUT /home/maximilian/.local/texlive/2018/texmf-dist/tex/latex/ifmtarg/ifmtarg.sty
INPUT /home/maximilian/.local/texlive/2018/texmf-dist/tex/latex/tcolorbox/tcolorbox.sty
INPUT /home/maximilian/.local/texlive/2018/texmf-dist/tex/latex/tcolorbox/tcolorbox.sty
INPUT /home/maximilian/.local/texlive/2018/texmf-dist/tex/latex/pgf/basiclayer/pgf.sty
INPUT /home/maximilian/.local/texlive/2018/texmf-dist/tex/latex/pgf/basiclayer/pgf.sty
INPUT /home/maximilian/.local/texlive/2018/texmf-dist/tex/latex/pgf/utilities/pgfrcs.sty
INPUT /home/maximilian/.local/texlive/2018/texmf-dist/tex/latex/pgf/utilities/pgfrcs.sty
INPUT /home/maximilian/.local/texlive/2018/texmf-dist/tex/generic/pgf/utilities/pgfutil-common.tex
INPUT /home/maximilian/.local/texlive/2018/texmf-dist/tex/generic/pgf/utilities/pgfutil-common-lists.tex
INPUT /home/maximilian/.local/texlive/2018/texmf-dist/tex/generic/pgf/utilities/pgfutil-latex.def
INPUT /home/maximilian/.local/texlive/2018/texmf-dist/tex/latex/ms/everyshi.sty
INPUT /home/maximilian/.local/texlive/2018/texmf-dist/tex/latex/ms/everyshi.sty
INPUT /home/maximilian/.local/texlive/2018/texmf-dist/tex/generic/pgf/utilities/pgfrcs.code.tex
INPUT /home/maximilian/.local/texlive/2018/texmf-dist/tex/generic/pgf/utilities/pgfrcs.code.tex
INPUT /home/maximilian/.local/texlive/2018/texmf-dist/tex/latex/pgf/basiclayer/pgfcore.sty
INPUT /home/maximilian/.local/texlive/2018/texmf-dist/tex/latex/pgf/basiclayer/pgfcore.sty
INPUT /home/maximilian/.local/texlive/2018/texmf-dist/tex/latex/graphics/graphicx.sty
INPUT /home/maximilian/.local/texlive/2018/texmf-dist/tex/latex/graphics/graphicx.sty
INPUT /home/maximilian/.local/texlive/2018/texmf-dist/tex/latex/graphics/graphics.sty
INPUT /home/maximilian/.local/texlive/2018/texmf-dist/tex/latex/graphics/graphics.sty
INPUT /home/maximilian/.local/texlive/2018/texmf-dist/tex/latex/graphics/trig.sty
INPUT /home/maximilian/.local/texlive/2018/texmf-dist/tex/latex/graphics/trig.sty
INPUT /home/maximilian/.local/texlive/2018/texmf-dist/tex/latex/graphics-cfg/graphics.cfg
INPUT /home/maximilian/.local/texlive/2018/texmf-dist/tex/latex/graphics-cfg/graphics.cfg
INPUT /home/maximilian/.local/texlive/2018/texmf-dist/tex/latex/pgf/systemlayer/pgfsys.sty
INPUT /home/maximilian/.local/texlive/2018/texmf-dist/tex/latex/pgf/systemlayer/pgfsys.sty
INPUT /home/maximilian/.local/texlive/2018/texmf-dist/tex/generic/pgf/systemlayer/pgfsys.code.tex
INPUT /home/maximilian/.local/texlive/2018/texmf-dist/tex/generic/pgf/systemlayer/pgfsys.code.tex
INPUT /home/maximilian/.local/texlive/2018/texmf-dist/tex/generic/pgf/utilities/pgfkeys.code.tex
INPUT /home/maximilian/.local/texlive/2018/texmf-dist/tex/generic/pgf/utilities/pgfkeysfiltered.code.tex
INPUT /home/maximilian/.local/texlive/2018/texmf-dist/tex/generic/pgf/systemlayer/pgf.cfg
INPUT /home/maximilian/.local/texlive/2018/texmf-dist/tex/generic/pgf/systemlayer/pgfsys-xetex.def
INPUT /home/maximilian/.local/texlive/2018/texmf-dist/tex/generic/pgf/systemlayer/pgfsys-xetex.def
INPUT /home/maximilian/.local/texlive/2018/texmf-dist/tex/generic/pgf/systemlayer/pgfsys-dvipdfmx.def
INPUT /home/maximilian/.local/texlive/2018/texmf-dist/tex/generic/pgf/systemlayer/pgfsys-common-pdf.def
INPUT /home/maximilian/.local/texlive/2018/texmf-dist/tex/generic/pgf/systemlayer/pgfsyssoftpath.code.tex
INPUT /home/maximilian/.local/texlive/2018/texmf-dist/tex/generic/pgf/systemlayer/pgfsyssoftpath.code.tex
INPUT /home/maximilian/.local/texlive/2018/texmf-dist/tex/generic/pgf/systemlayer/pgfsysprotocol.code.tex
INPUT /home/maximilian/.local/texlive/2018/texmf-dist/tex/generic/pgf/systemlayer/pgfsysprotocol.code.tex
INPUT /home/maximilian/.local/texlive/2018/texmf-dist/tex/generic/pgf/basiclayer/pgfcore.code.tex
INPUT /home/maximilian/.local/texlive/2018/texmf-dist/tex/generic/pgf/basiclayer/pgfcore.code.tex
INPUT /home/maximilian/.local/texlive/2018/texmf-dist/tex/generic/pgf/math/pgfmath.code.tex
INPUT /home/maximilian/.local/texlive/2018/texmf-dist/tex/generic/pgf/math/pgfmathcalc.code.tex
INPUT /home/maximilian/.local/texlive/2018/texmf-dist/tex/generic/pgf/math/pgfmathutil.code.tex
INPUT /home/maximilian/.local/texlive/2018/texmf-dist/tex/generic/pgf/math/pgfmathparser.code.tex
INPUT /home/maximilian/.local/texlive/2018/texmf-dist/tex/generic/pgf/math/pgfmathfunctions.code.tex
INPUT /home/maximilian/.local/texlive/2018/texmf-dist/tex/generic/pgf/math/pgfmathfunctions.basic.code.tex
INPUT /home/maximilian/.local/texlive/2018/texmf-dist/tex/generic/pgf/math/pgfmathfunctions.trigonometric.code.tex
INPUT /home/maximilian/.local/texlive/2018/texmf-dist/tex/generic/pgf/math/pgfmathfunctions.random.code.tex
INPUT /home/maximilian/.local/texlive/2018/texmf-dist/tex/generic/pgf/math/pgfmathfunctions.comparison.code.tex
INPUT /home/maximilian/.local/texlive/2018/texmf-dist/tex/generic/pgf/math/pgfmathfunctions.base.code.tex
INPUT /home/maximilian/.local/texlive/2018/texmf-dist/tex/generic/pgf/math/pgfmathfunctions.round.code.tex
INPUT /home/maximilian/.local/texlive/2018/texmf-dist/tex/generic/pgf/math/pgfmathfunctions.misc.code.tex
INPUT /home/maximilian/.local/texlive/2018/texmf-dist/tex/generic/pgf/math/pgfmathfunctions.integerarithmetics.code.tex
INPUT /home/maximilian/.local/texlive/2018/texmf-dist/tex/generic/pgf/math/pgfmathfloat.code.tex
INPUT /home/maximilian/.local/texlive/2018/texmf-dist/tex/generic/pgf/basiclayer/pgfcorepoints.code.tex
INPUT /home/maximilian/.local/texlive/2018/texmf-dist/tex/generic/pgf/basiclayer/pgfcorepathconstruct.code.tex
INPUT /home/maximilian/.local/texlive/2018/texmf-dist/tex/generic/pgf/basiclayer/pgfcorepathusage.code.tex
INPUT /home/maximilian/.local/texlive/2018/texmf-dist/tex/generic/pgf/basiclayer/pgfcorescopes.code.tex
INPUT /home/maximilian/.local/texlive/2018/texmf-dist/tex/generic/pgf/basiclayer/pgfcoregraphicstate.code.tex
INPUT /home/maximilian/.local/texlive/2018/texmf-dist/tex/generic/pgf/basiclayer/pgfcoretransformations.code.tex
INPUT /home/maximilian/.local/texlive/2018/texmf-dist/tex/generic/pgf/basiclayer/pgfcorequick.code.tex
INPUT /home/maximilian/.local/texlive/2018/texmf-dist/tex/generic/pgf/basiclayer/pgfcoreobjects.code.tex
INPUT /home/maximilian/.local/texlive/2018/texmf-dist/tex/generic/pgf/basiclayer/pgfcorepathprocessing.code.tex
INPUT /home/maximilian/.local/texlive/2018/texmf-dist/tex/generic/pgf/basiclayer/pgfcorearrows.code.tex
INPUT /home/maximilian/.local/texlive/2018/texmf-dist/tex/generic/pgf/basiclayer/pgfcoreshade.code.tex
INPUT /home/maximilian/.local/texlive/2018/texmf-dist/tex/generic/pgf/basiclayer/pgfcoreimage.code.tex
INPUT /home/maximilian/.local/texlive/2018/texmf-dist/tex/generic/pgf/basiclayer/pgfcoreexternal.code.tex
INPUT /home/maximilian/.local/texlive/2018/texmf-dist/tex/generic/pgf/basiclayer/pgfcorelayers.code.tex
INPUT /home/maximilian/.local/texlive/2018/texmf-dist/tex/generic/pgf/basiclayer/pgfcoretransparency.code.tex
INPUT /home/maximilian/.local/texlive/2018/texmf-dist/tex/generic/pgf/basiclayer/pgfcorepatterns.code.tex
INPUT /home/maximilian/.local/texlive/2018/texmf-dist/tex/generic/pgf/modules/pgfmoduleshapes.code.tex
INPUT /home/maximilian/.local/texlive/2018/texmf-dist/tex/generic/pgf/modules/pgfmoduleplot.code.tex
INPUT /home/maximilian/.local/texlive/2018/texmf-dist/tex/latex/pgf/compatibility/pgfcomp-version-0-65.sty
INPUT /home/maximilian/.local/texlive/2018/texmf-dist/tex/latex/pgf/compatibility/pgfcomp-version-0-65.sty
INPUT /home/maximilian/.local/texlive/2018/texmf-dist/tex/latex/pgf/compatibility/pgfcomp-version-1-18.sty
INPUT /home/maximilian/.local/texlive/2018/texmf-dist/tex/latex/pgf/compatibility/pgfcomp-version-1-18.sty
INPUT /home/maximilian/.local/texlive/2018/texmf-dist/tex/latex/tools/verbatim.sty
INPUT /home/maximilian/.local/texlive/2018/texmf-dist/tex/latex/tools/verbatim.sty
INPUT /home/maximilian/.local/texlive/2018/texmf-dist/tex/latex/environ/environ.sty
INPUT /home/maximilian/.local/texlive/2018/texmf-dist/tex/latex/environ/environ.sty
INPUT /home/maximilian/.local/texlive/2018/texmf-dist/tex/latex/trimspaces/trimspaces.sty
INPUT /home/maximilian/.local/texlive/2018/texmf-dist/tex/latex/trimspaces/trimspaces.sty
INPUT /home/maximilian/.local/texlive/2018/texmf-dist/tex/latex/etoolbox/etoolbox.sty
INPUT /home/maximilian/.local/texlive/2018/texmf-dist/tex/latex/etoolbox/etoolbox.sty
INPUT /home/maximilian/.local/texlive/2018/texmf-dist/tex/latex/tcolorbox/tcbskins.code.tex
INPUT /home/maximilian/.local/texlive/2018/texmf-dist/tex/latex/pgf/frontendlayer/tikz.sty
INPUT /home/maximilian/.local/texlive/2018/texmf-dist/tex/latex/pgf/frontendlayer/tikz.sty
INPUT /home/maximilian/.local/texlive/2018/texmf-dist/tex/latex/pgf/utilities/pgffor.sty
INPUT /home/maximilian/.local/texlive/2018/texmf-dist/tex/latex/pgf/utilities/pgffor.sty
INPUT /home/maximilian/.local/texlive/2018/texmf-dist/tex/latex/pgf/utilities/pgfkeys.sty
INPUT /home/maximilian/.local/texlive/2018/texmf-dist/tex/latex/pgf/utilities/pgfkeys.sty
INPUT /home/maximilian/.local/texlive/2018/texmf-dist/tex/generic/pgf/utilities/pgfkeys.code.tex
INPUT /home/maximilian/.local/texlive/2018/texmf-dist/tex/generic/pgf/utilities/pgfkeys.code.tex
INPUT /home/maximilian/.local/texlive/2018/texmf-dist/tex/latex/pgf/math/pgfmath.sty
INPUT /home/maximilian/.local/texlive/2018/texmf-dist/tex/latex/pgf/math/pgfmath.sty
INPUT /home/maximilian/.local/texlive/2018/texmf-dist/tex/generic/pgf/math/pgfmath.code.tex
INPUT /home/maximilian/.local/texlive/2018/texmf-dist/tex/generic/pgf/math/pgfmath.code.tex
INPUT /home/maximilian/.local/texlive/2018/texmf-dist/tex/generic/pgf/utilities/pgffor.code.tex
INPUT /home/maximilian/.local/texlive/2018/texmf-dist/tex/generic/pgf/utilities/pgffor.code.tex
INPUT /home/maximilian/.local/texlive/2018/texmf-dist/tex/generic/pgf/math/pgfmath.code.tex
INPUT /home/maximilian/.local/texlive/2018/texmf-dist/tex/generic/pgf/frontendlayer/tikz/tikz.code.tex
INPUT /home/maximilian/.local/texlive/2018/texmf-dist/tex/generic/pgf/frontendlayer/tikz/tikz.code.tex
INPUT /home/maximilian/.local/texlive/2018/texmf-dist/tex/generic/pgf/libraries/pgflibraryplothandlers.code.tex
INPUT /home/maximilian/.local/texlive/2018/texmf-dist/tex/generic/pgf/libraries/pgflibraryplothandlers.code.tex
INPUT /home/maximilian/.local/texlive/2018/texmf-dist/tex/generic/pgf/modules/pgfmodulematrix.code.tex
INPUT /home/maximilian/.local/texlive/2018/texmf-dist/tex/generic/pgf/frontendlayer/tikz/libraries/tikzlibrarytopaths.code.tex
INPUT /home/maximilian/.local/texlive/2018/texmf-dist/tex/generic/pgf/frontendlayer/tikz/libraries/tikzlibrarytopaths.code.tex
INPUT /home/maximilian/.local/texlive/2018/texmf-dist/tex/latex/tcolorbox/tcbskinsjigsaw.code.tex
INPUT /home/maximilian/.local/texlive/2018/texmf-dist/tex/latex/ms/ragged2e.sty
INPUT /home/maximilian/.local/texlive/2018/texmf-dist/tex/latex/ms/ragged2e.sty
INPUT /home/maximilian/.local/texlive/2018/texmf-dist/tex/latex/ms/everysel.sty
INPUT /home/maximilian/.local/texlive/2018/texmf-dist/tex/latex/ms/everysel.sty
INPUT /home/maximilian/.local/texlive/2018/texmf-dist/tex/latex/fontspec/fontspec.sty
INPUT /home/maximilian/.local/texlive/2018/texmf-dist/tex/latex/fontspec/fontspec.sty
INPUT /home/maximilian/.local/texlive/2018/texmf-dist/tex/latex/l3packages/xparse/xparse.sty
INPUT /home/maximilian/.local/texlive/2018/texmf-dist/tex/latex/l3packages/xparse/xparse.sty
INPUT /home/maximilian/.local/texlive/2018/texmf-dist/tex/latex/l3kernel/expl3.sty
INPUT /home/maximilian/.local/texlive/2018/texmf-dist/tex/latex/l3kernel/expl3.sty
INPUT /home/maximilian/.local/texlive/2018/texmf-dist/tex/latex/l3kernel/expl3-code.tex
INPUT /home/maximilian/.local/texlive/2018/texmf-dist/tex/latex/l3kernel/expl3-code.tex
INPUT /home/maximilian/.local/texlive/2018/texmf-dist/fonts/map/fontname/texfonts.map
INPUT /home/maximilian/.local/texlive/2018/texmf-dist/fonts/tfm/public/cm/cmr10.tfm
INPUT /home/maximilian/.local/texlive/2018/texmf-dist/fonts/tfm/public/cm/cmr10.tfm
INPUT /home/maximilian/.local/texlive/2018/texmf-dist/fonts/tfm/public/cm/cmr10.tfm
INPUT /home/maximilian/.local/texlive/2018/texmf-dist/fonts/tfm/public/cm/cmr10.tfm
INPUT /home/maximilian/.local/texlive/2018/texmf-dist/fonts/tfm/public/cm/cmr10.tfm
INPUT /home/maximilian/.local/texlive/2018/texmf-dist/fonts/tfm/public/cm/cmr10.tfm
INPUT /home/maximilian/.local/texlive/2018/texmf-dist/fonts/tfm/public/cm/cmr10.tfm
INPUT /home/maximilian/.local/texlive/2018/texmf-dist/fonts/tfm/public/cm/cmr10.tfm
INPUT /home/maximilian/.local/texlive/2018/texmf-dist/fonts/tfm/public/cm/cmr10.tfm
INPUT /home/maximilian/.local/texlive/2018/texmf-dist/fonts/tfm/public/cm/cmr10.tfm
INPUT /home/maximilian/.local/texlive/2018/texmf-dist/tex/generic/unicode-data/UnicodeData.txt
INPUT /home/maximilian/.local/texlive/2018/texmf-dist/tex/generic/unicode-data/UnicodeData.txt
INPUT /home/maximilian/.local/texlive/2018/texmf-dist/tex/generic/unicode-data/CaseFolding.txt
INPUT /home/maximilian/.local/texlive/2018/texmf-dist/tex/generic/unicode-data/CaseFolding.txt
INPUT /home/maximilian/.local/texlive/2018/texmf-dist/tex/generic/unicode-data/SpecialCasing.txt
INPUT /home/maximilian/.local/texlive/2018/texmf-dist/tex/generic/unicode-data/SpecialCasing.txt
INPUT /dev/null
INPUT /home/maximilian/.local/texlive/2018/texmf-dist/tex/latex/l3kernel/l3xdvipdfmx.def
INPUT /home/maximilian/.local/texlive/2018/texmf-dist/tex/latex/l3kernel/l3xdvipdfmx.def
INPUT /home/maximilian/.local/texlive/2018/texmf-dist/tex/latex/fontspec/fontspec-xetex.sty
INPUT /home/maximilian/.local/texlive/2018/texmf-dist/tex/latex/fontspec/fontspec-xetex.sty
INPUT /home/maximilian/.local/texlive/2018/texmf-dist/tex/latex/base/tuenc.def
INPUT /home/maximilian/.local/texlive/2018/texmf-dist/tex/latex/base/fontenc.sty
INPUT /home/maximilian/.local/texlive/2018/texmf-dist/tex/latex/base/fontenc.sty
INPUT /home/maximilian/.local/texlive/2018/texmf-dist/tex/latex/base/tuenc.def
INPUT /home/maximilian/.local/texlive/2018/texmf-dist/tex/latex/base/tuenc.def
INPUT /home/maximilian/.local/texlive/2018/texmf-dist/tex/latex/fontspec/fontspec.cfg
INPUT /home/maximilian/.local/texlive/2018/texmf-dist/tex/latex/fontspec/fontspec.cfg
INPUT /home/maximilian/.local/texlive/2018/texmf-dist/tex/latex/hyperref/hyperref.sty
INPUT /home/maximilian/.local/texlive/2018/texmf-dist/tex/latex/hyperref/hyperref.sty
INPUT /home/maximilian/.local/texlive/2018/texmf-dist/tex/generic/oberdiek/hobsub-hyperref.sty
INPUT /home/maximilian/.local/texlive/2018/texmf-dist/tex/generic/oberdiek/hobsub-hyperref.sty
INPUT /home/maximilian/.local/texlive/2018/texmf-dist/tex/generic/oberdiek/hobsub-hyperref.sty
INPUT /home/maximilian/.local/texlive/2018/texmf-dist/tex/generic/oberdiek/hobsub-generic.sty
INPUT /home/maximilian/.local/texlive/2018/texmf-dist/tex/generic/oberdiek/hobsub-generic.sty
INPUT /home/maximilian/.local/texlive/2018/texmf-dist/tex/latex/oberdiek/auxhook.sty
INPUT /home/maximilian/.local/texlive/2018/texmf-dist/tex/latex/oberdiek/auxhook.sty
INPUT /home/maximilian/.local/texlive/2018/texmf-dist/tex/latex/oberdiek/kvoptions.sty
INPUT /home/maximilian/.local/texlive/2018/texmf-dist/tex/latex/oberdiek/kvoptions.sty
INPUT /home/maximilian/.local/texlive/2018/texmf-dist/tex/latex/hyperref/pd1enc.def
INPUT /home/maximilian/.local/texlive/2018/texmf-dist/tex/latex/hyperref/pd1enc.def
INPUT /home/maximilian/.local/texlive/2018/texmf-dist/tex/latex/latexconfig/hyperref.cfg
INPUT /home/maximilian/.local/texlive/2018/texmf-dist/tex/latex/latexconfig/hyperref.cfg
INPUT /home/maximilian/.local/texlive/2018/texmf-dist/tex/latex/hyperref/puenc.def
INPUT /home/maximilian/.local/texlive/2018/texmf-dist/tex/latex/hyperref/puenc.def
INPUT /home/maximilian/.local/texlive/2018/texmf-dist/tex/latex/url/url.sty
INPUT /home/maximilian/.local/texlive/2018/texmf-dist/tex/latex/url/url.sty
INPUT /home/maximilian/.local/texlive/2018/texmf-dist/fonts/tfm/adobe/zapfding/pzdr.tfm
INPUT /home/maximilian/.local/texlive/2018/texmf-dist/tex/latex/hyperref/hxetex.def
INPUT /home/maximilian/.local/texlive/2018/texmf-dist/tex/latex/hyperref/hxetex.def
INPUT /home/maximilian/.local/texlive/2018/texmf-dist/tex/generic/oberdiek/stringenc.sty
INPUT /home/maximilian/.local/texlive/2018/texmf-dist/tex/generic/oberdiek/stringenc.sty
INPUT /home/maximilian/.local/texlive/2018/texmf-dist/tex/latex/oberdiek/rerunfilecheck.sty
INPUT /home/maximilian/.local/texlive/2018/texmf-dist/tex/latex/oberdiek/rerunfilecheck.sty
INPUT /home/maximilian/.local/texlive/2018/texmf-dist/tex/latex/fontawesome/fontawesome.sty
INPUT /home/maximilian/.local/texlive/2018/texmf-dist/tex/latex/fontawesome/fontawesome.sty
INPUT /home/maximilian/.local/texlive/2018/texmf-dist/tex/latex/fontawesome/fontawesomesymbols-generic.tex
INPUT /home/maximilian/.local/texlive/2018/texmf-dist/tex/latex/fontawesome/fontawesomesymbols-generic.tex
INPUT /home/maximilian/.local/texlive/2018/texmf-dist/tex/latex/fontawesome/fontawesomesymbols-xeluatex.tex
INPUT /home/maximilian/.local/texlive/2018/texmf-dist/tex/latex/fontawesome/fontawesomesymbols-xeluatex.tex
INPUT /home/maximilian/.local/texlive/2018/texmf-dist/tex/latex/background/background.sty
INPUT /home/maximilian/.local/texlive/2018/texmf-dist/tex/latex/background/background.sty
INPUT /home/maximilian/.local/texlive/2018/texmf-dist/tex/latex/xkeyval/xkeyval.sty
INPUT /home/maximilian/.local/texlive/2018/texmf-dist/tex/latex/xkeyval/xkeyval.sty
INPUT /home/maximilian/.local/texlive/2018/texmf-dist/tex/generic/xkeyval/xkeyval.tex
INPUT /home/maximilian/.local/texlive/2018/texmf-dist/tex/generic/xkeyval/xkvutils.tex
INPUT /home/maximilian/.local/texlive/2018/texmf-dist/tex/latex/everypage/everypage.sty
INPUT /home/maximilian/.local/texlive/2018/texmf-dist/tex/latex/everypage/everypage.sty
INPUT /home/maximilian/.local/texlive/2018/texmf-dist/tex/latex/tools/afterpage.sty
INPUT /home/maximilian/.local/texlive/2018/texmf-dist/tex/latex/tools/afterpage.sty
INPUT /home/maximilian/.local/texlive/2018/texmf-dist/tex/latex/enumitem/enumitem.sty
INPUT /home/maximilian/.local/texlive/2018/texmf-dist/tex/latex/enumitem/enumitem.sty
INPUT build/main.aux
INPUT build/main.aux
OUTPUT build/main.aux
INPUT /home/maximilian/.local/texlive/2018/texmf-dist/tex/latex/hyperref/nameref.sty
INPUT /home/maximilian/.local/texlive/2018/texmf-dist/tex/latex/hyperref/nameref.sty
INPUT /home/maximilian/.local/texlive/2018/texmf-dist/tex/generic/oberdiek/gettitlestring.sty
INPUT /home/maximilian/.local/texlive/2018/texmf-dist/tex/generic/oberdiek/gettitlestring.sty
INPUT build/main.out
INPUT build/main.out
INPUT build/main.out
INPUT build/main.out
INPUT build/main.out
OUTPUT build/main.out
INPUT profilbild.jpg
INPUT build/main.aux
INPUT build/main.out
